^C:\VISUAL_STUDIO\PROJECTS\BUSQUEDABINARIA\BUSQUEDABINARIA\DEBUG\BUSQUEDABINARIA.OBJ|C:\VISUAL_STUDIO\PROJECTS\BUSQUEDABINARIA\BUSQUEDABINARIA\DEBUG\STDAFX.OBJ
C:\VISUAL_STUDIO\PROJECTS\BUSQUEDABINARIA\DEBUG\BUSQUEDABINARIA.ILK
C:\VISUAL_STUDIO\PROJECTS\BUSQUEDABINARIA\DEBUG\BUSQUEDABINARIA.EXE
C:\VISUAL_STUDIO\PROJECTS\BUSQUEDABINARIA\DEBUG\BUSQUEDABINARIA.PDB
